{
  "Items": [
    {
      "Type": "Url",
      "Title": "Samorząd Studentów SGGW",
      "Icon": "/Assets/DataImages/globe.png",
      "Target": "http://www.facebook.com/SamorzadStudentowSGG"
    },
    {
      "Type": "Url",
      "Title": "Ursynalia",
      "Icon": "/Assets/DataImages/volume.png",
      "Target": "http://ursynalia.pl/"
    },
    {
      "Type": "Url",
      "Title": "Dni SGGW",
      "Icon": "/Assets/DataImages/calendar.png",
      "Target": "http://www.sggw.pl/dla-mediow/biuro-promocji/dni-s"
    },
    {
      "Type": "Url",
      "Title": "Organizacje studenckie",
      "Icon": "/Assets/DataImages/people.png",
      "Target": "http://www.sggw.pl/organizacje-studenckie"
    },
    {
      "Type": "Url",
      "Title": "AZS",
      "Icon": "/Assets/DataImages/outlinestar.png",
      "Target": "http://www.azs.sggw.pl/"
    }
  ]
}